Name	GesamteKampf	Siege	Niederlagen	Siegquote	IsTot
Andabat	0	0	0	0.0	false
Commod	0	0	0	0.0	false
Crixus	0	0	0	0.0	false
Flamma	0	0	0	0.0	false
Fuad	0	0	0	0.0	false
Hermes	0	0	0	0.0	false
Marcus	0	0	0	0.0	false
Maximus	0	0	0	0.0	false
Murmil	0	0	0	0.0	false
Myrmil	0	0	0	0.0	false
Priscus	0	0	0	0.0	false
Salim	0	0	0	0.0	false
Secutor	0	0	0	0.0	false
Sparta	0	0	0	0.0	false
Sparta	0	0	0	0.0	false
Thraex	0	0	0	0.0	false
Verus	0	0	0	0.0	false
